 Giorni:
 Difficulty : ★★★

ef h ; h ; h | Wd h ; h ; h | Ws h q; h ; h | _ q W | ef h ; h ; h | Wd h ; h ; h | qs h ; h ; h | W q W |
ef h ; h ; h | Wd h ; h ; eh | sW-e Wh q; h ; h | q W | ef h ; h ; h | Wd h r; h e; Wh | qs h ; h ; h | e r|
Tf h ; h ; h | rd h ; h ; Th | rs h e; h ; h | s _ e-r | Tf h ; h ; h | rd h ; uh ; h | es h ; h ; h | _ q W q W |
ef h ; h ; h | Wd h ; h ; eh | sW-e Wh q; h ; h | _ q W | ef h ; h ; h |Wd h r; h e; Wh | qs h ; h ; h | _  e-W-e  |

hm . d e-W-e | Gn . d r-e-W| Wb . qd . d . | b . d e-W-e | hm . d e-W-e| Gn r. ed r. ed W. | qb . d . d . | e-W-e |
hm . d e-W-e | Gn . d r-e-W| Wb . qd . d . | b . d e-W-e | hm . d e-W-e| Gn r. ed r. ed W. | qb . d . d . | K-l-K-l|

;. d Kh ld Kh ld | ;n / Kd l/ Kd l/ | ;m hA Kf ;A hf KA | lb . Kf l. Kf l. | ;. d Kh ld Kh ld | ;n q/ ;d l/ Kd j/ |
jm A hf A f A | b . fK-l-K |;. d Kh ld Kh ld | ;n q/ ;d l/ Kd l/ | ;m hA Kf ;A hf KA | lb . Kf l. Kf l. | 
;. d Kh ld Kh ld | ;n q/ ;d l/ Kd j/ | hm A f A f A | b . fK l K j |

x.h K ; h K ; | n h K l K j | jm A hf A f A | b . Kf l K j | x.; d h ; d h | n; d h l d h | lm d h K d h | Kb d h l
d h | e. h ; e h ; | en h l e h l | em hA Kf eA hf KA | eb h. lf e. hf l. |e. Kd ;h ed Kh ;d | en j/ ld e/ jd l/ |
em hA Kf eA hf KA | eb h. lf e. hf l. | e. Kd eh Kd eh Kd | ln j/ ld j/ ld j/ | Km hA kf hA kf hA | lb h. lf h |
.dK h K h K h | n/j h j h j h | x.K 





