[
    {
        "title": "Kiss the Rain",
        "file": "assets/SongFiles/KissTheRain.txt",
        "link": "https://youtu.be/idEI3tH_ZTA",
        "index": 0
    },
    {
        "title": " I Giorni",
        "file": "assets/SongFiles/iGiorni.txt",
        "link": "https://youtu.be/P2K7D-uMH2g",
        "index": 1
    },
    {
        "title": "Mary Had a Little Lamb",
        "file": "assets/SongFiles/mary.txt",
        "link": "https://youtu.be/dQw4w9WgXcQ",
        "index": 2
    },
    {
        "title": "Moonlight Sonata",
        "file": "assets/SongFiles/moonlight.txt",
        "link": "https://www.youtube.com/watch?v=sbTVZMJ9Z2I" ,
        "index": 3
    },
    {
        "title": "Hallelujah",
        "file": "assets/SongFiles/hallelujah.txt",
        "link": "https://youtu.be/sbTVZMJ9Z2I",
        "index": 4
    },
    {
        "title": "Fur Elise",
        "file": "assets/SongFiles/furElise.txt",
        "link": "https://youtu.be/wfF0zHeU3Zs",
        "index": 5
    },
    {
        "title": "Merry Little Christmas",
        "file": "assets/SongFiles/crisis.txt",
        "link": "https://youtu.be/dG7yQbvNqiE",
        "index": 6
    }
    ]