[
    {
        "used": "HTML5: Tags, Audio, Video, etc."
    },
    {
        "used": "CSS: Homebrew styling"
    },
    {
        "used": "Typescript: Used where possible!"
    },
    {
        "used": "Framework/Library: Angular"
    },
    {
        "used": "Node: Not used yet!"
    },
    {
        "used": "Web Server: Hosted on Localhost:4200 blaze it"
    },
    {
        "used": "Fetching Data: Retrieval from json files"
    }
    ]